{
  "pid": 2991,
  "stats": [
    {
      "id": null,
      "version": {
        "node": "v12.20.0",
        "total": "3.4.6",
        "app": "3.0.0"
      },
      "pid": 2991,
      "thread": "",
      "mode": "release",
      "overload": 0,
      "date": "2020-11-30T19:51:52.392Z",
      "memory": 10.61,
      "rm": 0,
      "fm": 0,
      "wm": 1,
      "mm": 0,
      "om": 0,
      "em": 0,
      "dbrm": 0,
      "dbwm": 0,
      "usage": 0,
      "requests": 18,
      "pending": 0,
      "errors": 0,
      "timeouts": 0,
      "uptime": 8,
      "online": 1
    }
  ]
}